{
  "project_info": {
    "project_number": "47256563777",
    "firebase_url": "https://gaadi360areamanager.firebaseio.com",
    "project_id": "gaadi360areamanager",
    "storage_bucket": "gaadi360areamanager.appspot.com"
  },
  "client": [
    {
      "client_info": {
        "mobilesdk_app_id": "1:47256563777:android:9b1bb7ccdb8e55cd6a16c0",
        "android_client_info": {
          "package_name": "in.g360.gaadi360areamanager"
        }
      },
      "oauth_client": [
        {
          "client_id": "47256563777-mu2af5ea0cshjkl098vgkdbrgnn8dgob.apps.googleusercontent.com",
          "client_type": 3
        }
      ],
      "api_key": [
        {
          "current_key": "AIzaSyBg5VtGV0Wp00cq5GtQTwcMKCkxbCD7xkc"
        }
      ],
      "services": {
        "appinvite_service": {
          "other_platform_oauth_client": [
            {
              "client_id": "47256563777-mu2af5ea0cshjkl098vgkdbrgnn8dgob.apps.googleusercontent.com",
              "client_type": 3
            }
          ]
        }
      }
    }
  ],
  "configuration_version": "1"
}